EEA-21/labs/lab3/q53/simulation/qsim/q53.msim.vcd
$comment
	File created using the following command:
		vcd file q53.msim.vcd -direction
$end
$date
	Wed Jun 10 03:08:49 2020
$end
$version
	ModelSim Version 10.1d
$end
$timescale
	1ps
$end
$scope module q53_vlg_vec_tst $end
$var reg 1 ! Ai $end
$var reg 1 " Bi $end
$var reg 1 # Eimenos1 $end
$var wire 1 $ Ei $end
$var wire 1 % Si $end
$var wire 1 & sampler $end
$scope module i1 $end
$var wire 1 ' gnd $end
$var wire 1 ( vcc $end
$var wire 1 ) unknown $end
$var tri1 1 * devclrn $end
$var tri1 1 + devpor $end
$var tri1 1 , devoe $end
$var wire 1 - Si~output_o $end
$var wire 1 . Ei~output_o $end
$var wire 1 / Eimenos1~input_o $end
$var wire 1 0 Ai~input_o $end
$var wire 1 1 Bi~input_o $end
$var wire 1 2 inst7~0_combout $end
$var wire 1 3 inst10~combout $end
$upscope $end
$upscope $end
$enddefinitions $end
#0
$dumpvars
0!
0"
0#
0$
0%
x&
0'
1(
x)
1*
1+
1,
0-
0.
0/
00
01
02
03
$end
#5000
1#
1/
0&
13
12
1.
1-
1$
1%
#10000
1"
0#
11
0/
1&
#15000
1#
1/
0&
02
0-
0%
#20000
1!
0"
0#
10
01
0/
1&
03
12
0.
1-
0$
1%
#25000
1#
1/
0&
02
0-
0%
#30000
1"
0#
11
0/
1&
#35000
1#
1/
0&
13
12
1.
1-
1$
1%
