EEA-21/labs/lab2/q5(1)/simulation/qsim/q51.msim.vcd
$comment
	File created using the following command:
		vcd file q51.msim.vcd -direction
$end
$date
	Wed Jun 03 18:28:17 2020
$end
$version
	ModelSim Version 10.1d
$end
$timescale
	1ps
$end
$scope module q51_vlg_vec_tst $end
$var reg 1 ! X0 $end
$var reg 1 " X1 $end
$var reg 1 # X2 $end
$var reg 1 $ X3 $end
$var reg 1 % X4 $end
$var reg 1 & X5 $end
$var reg 1 ' X6 $end
$var reg 1 ( X7 $end
$var wire 1 ) A $end
$var wire 1 * Y0 $end
$var wire 1 + Y1 $end
$var wire 1 , Y2 $end
$var wire 1 - sampler $end
$scope module i1 $end
$var wire 1 . gnd $end
$var wire 1 / vcc $end
$var wire 1 0 unknown $end
$var tri1 1 1 devclrn $end
$var tri1 1 2 devpor $end
$var tri1 1 3 devoe $end
$var wire 1 4 A~output_o $end
$var wire 1 5 Y2~output_o $end
$var wire 1 6 Y1~output_o $end
$var wire 1 7 Y0~output_o $end
$var wire 1 8 X1~input_o $end
$var wire 1 9 X2~input_o $end
$var wire 1 : X3~input_o $end
$var wire 1 ; inst80~0_combout $end
$var wire 1 < X4~input_o $end
$var wire 1 = X7~input_o $end
$var wire 1 > X6~input_o $end
$var wire 1 ? inst7~0_combout $end
$var wire 1 @ X0~input_o $end
$var wire 1 A inst80~combout $end
$var wire 1 B inst13~0_combout $end
$var wire 1 C X5~input_o $end
$var wire 1 D inst17~0_combout $end
$var wire 1 E inst16~combout $end
$upscope $end
$upscope $end
$enddefinitions $end
#0
$dumpvars
0!
0"
0#
0$
0%
0&
0'
0(
0)
0*
0+
0,
x-
0.
1/
x0
11
12
13
04
05
06
07
08
09
0:
1;
0<
0=
0>
0?
0@
0A
0B
0C
1D
0E
$end
#5000
1!
1@
0-
1A
14
1)
#10000
1"
0!
18
0@
1-
0D
1E
17
1*
#15000
1!
1@
0-
#20000
1#
0"
0!
19
08
0@
1-
1D
0;
0A
04
0)
0E
1B
1A
07
16
14
0*
1+
1)
#25000
1!
1@
0-
#30000
1"
0!
18
0@
1-
#35000
1!
1@
0-
#40000
1$
0#
0"
0!
1:
09
08
0@
1-
0D
1E
17
1*
#45000
1!
1@
0-
#50000
1"
0!
18
0@
1-
#55000
1!
1@
0-
#60000
1#
0"
0!
19
08
0@
1-
#65000
1!
1@
0-
#70000
1"
0!
18
0@
1-
#75000
1!
1@
0-
#80000
1%
0$
0#
0"
0!
1<
0:
09
08
0@
1-
1D
1;
1?
15
1,
0E
0B
07
06
0*
0+
#85000
1!
1@
0-
#90000
1"
0!
18
0@
1-
#95000
1!
1@
0-
#100000
1#
0"
0!
19
08
0@
1-
0;
#105000
1!
1@
0-
#110000
1"
0!
18
0@
1-
#115000
1!
1@
0-
#120000
1$
0#
0"
0!
1:
09
08
0@
1-
#125000
1!
1@
0-
#130000
1"
0!
18
0@
1-
#135000
1!
1@
0-
#140000
1#
0"
0!
19
08
0@
1-
#145000
1!
1@
0-
#150000
1"
0!
18
0@
1-
#155000
1!
1@
0-
#160000
1&
0%
0$
0#
0"
0!
1C
0<
0:
09
08
0@
1-
1;
1E
17
1*
#165000
1!
1@
0-
#170000
1"
0!
18
0@
1-
#175000
1!
1@
0-
#180000
1#
0"
0!
19
08
0@
1-
0;
#185000
1!
1@
0-
#190000
1"
0!
18
0@
1-
#195000
1!
1@
0-
#200000
1$
0#
0"
0!
1:
09
08
0@
1-
#205000
1!
1@
0-
#210000
1"
0!
18
0@
1-
#215000
1!
1@
0-
#220000
1#
0"
0!
19
08
0@
1-
#225000
1!
1@
0-
#230000
1"
0!
18
0@
1-
#235000
1!
1@
0-
#240000
1%
0$
0#
0"
0!
1<
0:
09
08
0@
1-
1;
#245000
1!
1@
0-
#250000
1"
0!
18
0@
1-
#255000
1!
1@
0-
#260000
1#
0"
0!
19
08
0@
1-
0;
#265000
1!
1@
0-
#270000
1"
0!
18
0@
1-
#275000
1!
1@
0-
#280000
1$
0#
0"
0!
1:
09
08
0@
1-
#285000
1!
1@
0-
#290000
1"
0!
18
0@
1-
#295000
1!
1@
0-
#300000
1#
0"
0!
19
08
0@
1-
#305000
1!
1@
0-
#310000
1"
0!
18
0@
1-
#315000
1!
1@
0-
#320000
1'
0&
0%
0$
0#
0"
0!
1>
0C
0<
0:
09
08
0@
1-
1;
0E
1B
07
16
0*
1+
#325000
1!
1@
0-
#330000
1"
0!
18
0@
1-
#335000
1!
1@
0-
#340000
1#
0"
0!
19
08
0@
1-
0;
#345000
1!
1@
0-
#350000
1"
0!
18
0@
1-
#355000
1!
1@
0-
#360000
1$
0#
0"
0!
1:
09
08
0@
1-
#365000
1!
1@
0-
#370000
1"
0!
18
0@
1-
#375000
1!
1@
0-
#380000
1#
0"
0!
19
08
0@
1-
#385000
1!
1@
0-
#390000
1"
0!
18
0@
1-
#395000
1!
1@
0-
#400000
1%
0$
0#
0"
0!
1<
0:
09
08
0@
1-
1;
#405000
1!
1@
0-
#410000
1"
0!
18
0@
1-
#415000
1!
1@
0-
#420000
1#
0"
0!
19
08
0@
1-
0;
#425000
1!
1@
0-
#430000
1"
0!
18
0@
1-
#435000
1!
1@
0-
#440000
1$
0#
0"
0!
1:
09
08
0@
1-
#445000
1!
1@
0-
#450000
1"
0!
18
0@
1-
#455000
1!
1@
0-
#460000
1#
0"
0!
19
08
0@
1-
#465000
1!
1@
0-
#470000
1"
0!
18
0@
1-
#475000
1!
1@
0-
#480000
1&
0%
0$
0#
0"
0!
1C
0<
0:
09
08
0@
1-
1;
#485000
1!
1@
0-
#490000
1"
0!
18
0@
1-
#495000
1!
1@
0-
#500000
1#
0"
0!
19
08
0@
1-
0;
#505000
1!
1@
0-
#510000
1"
0!
18
0@
1-
#515000
1!
1@
0-
#520000
1$
0#
0"
0!
1:
09
08
0@
1-
#525000
1!
1@
0-
#530000
1"
0!
18
0@
1-
#535000
1!
1@
0-
#540000
1#
0"
0!
19
08
0@
1-
#545000
1!
1@
0-
#550000
1"
0!
18
0@
1-
#555000
1!
1@
0-
#560000
1%
0$
0#
0"
0!
1<
0:
09
08
0@
1-
1;
#565000
1!
1@
0-
#570000
1"
0!
18
0@
1-
#575000
1!
1@
0-
#580000
1#
0"
0!
19
08
0@
1-
0;
#585000
1!
1@
0-
#590000
1"
0!
18
0@
1-
#595000
1!
1@
0-
#600000
1$
0#
0"
0!
1:
09
08
0@
1-
#605000
1!
1@
0-
#610000
1"
0!
18
0@
1-
#615000
1!
1@
0-
#620000
1#
0"
0!
19
08
0@
1-
#625000
1!
1@
0-
#630000
1"
0!
18
0@
1-
#635000
1!
1@
0-
#640000
1(
0'
0&
0%
0$
0#
0"
0!
1=
0>
0C
0<
0:
09
08
0@
1-
1;
1E
17
1*
#645000
1!
1@
0-
#650000
1"
0!
18
0@
1-
#655000
1!
1@
0-
#660000
1#
0"
0!
19
08
0@
1-
0;
#665000
1!
1@
0-
#670000
1"
0!
18
0@
1-
#675000
1!
1@
0-
#680000
1$
0#
0"
0!
1:
09
08
0@
1-
#685000
1!
1@
0-
#690000
1"
0!
18
0@
1-
#695000
1!
1@
0-
#700000
1#
0"
0!
19
08
0@
1-
#705000
1!
1@
0-
#710000
1"
0!
18
0@
1-
#715000
1!
1@
0-
#720000
1%
0$
0#
0"
0!
1<
0:
09
08
0@
1-
1;
#725000
1!
1@
0-
#730000
1"
0!
18
0@
1-
#735000
1!
1@
0-
#740000
1#
0"
0!
19
08
0@
1-
0;
#745000
1!
1@
0-
#750000
1"
0!
18
0@
1-
#755000
1!
1@
0-
#760000
1$
0#
0"
0!
1:
09
08
0@
1-
#765000
1!
1@
0-
#770000
1"
0!
18
0@
1-
#775000
1!
1@
0-
#780000
1#
0"
0!
19
08
0@
1-
#785000
1!
1@
0-
#790000
1"
0!
18
0@
1-
#795000
1!
1@
0-
#800000
1&
0%
0$
0#
0"
0!
1C
0<
0:
09
08
0@
1-
1;
#805000
1!
1@
0-
#810000
1"
0!
18
0@
1-
#815000
1!
1@
0-
#820000
1#
0"
0!
19
08
0@
1-
0;
#825000
1!
1@
0-
#830000
1"
0!
18
0@
1-
#835000
1!
1@
0-
#840000
1$
0#
0"
0!
1:
09
08
0@
1-
#845000
1!
1@
0-
#850000
1"
0!
18
0@
1-
#855000
1!
1@
0-
#860000
1#
0"
0!
19
08
0@
1-
#865000
1!
1@
0-
#870000
1"
0!
18
0@
1-
#875000
1!
1@
0-
#880000
1%
0$
0#
0"
0!
1<
0:
09
08
0@
1-
1;
#885000
1!
1@
0-
#890000
1"
0!
18
0@
1-
#895000
1!
1@
0-
#900000
1#
0"
0!
19
08
0@
1-
0;
#905000
1!
1@
0-
#910000
1"
0!
18
0@
1-
#915000
1!
1@
0-
#920000
1$
0#
0"
0!
1:
09
08
0@
1-
#925000
1!
1@
0-
#930000
1"
0!
18
0@
1-
#935000
1!
1@
0-
#940000
1#
0"
0!
19
08
0@
1-
#945000
1!
1@
0-
#950000
1"
0!
18
0@
1-
#955000
1!
1@
0-
#960000
1'
0&
0%
0$
0#
0"
0!
1>
0C
0<
0:
09
08
0@
1-
1;
#965000
1!
1@
0-
#970000
1"
0!
18
0@
1-
#975000
1!
1@
0-
#980000
1#
0"
0!
19
08
0@
1-
0;
#985000
1!
1@
0-
#990000
1"
0!
18
0@
1-
#995000
1!
1@
0-
#1000000
1$
0#
0"
0!
1:
09
08
0@
1-
#1005000
1!
1@
0-
#1010000
1"
0!
18
0@
1-
#1015000
1!
1@
0-
#1020000
1#
0"
0!
19
08
0@
1-
#1025000
1!
1@
0-
#1030000
1"
0!
18
0@
1-
#1035000
1!
1@
0-
#1040000
1%
0$
0#
0"
0!
1<
0:
09
08
0@
1-
1;
#1045000
1!
1@
0-
#1050000
1"
0!
18
0@
1-
#1055000
1!
1@
0-
#1060000
1#
0"
0!
19
08
0@
1-
0;
#1065000
1!
1@
0-
#1070000
1"
0!
18
0@
1-
#1075000
1!
1@
0-
#1080000
1$
0#
0"
0!
1:
09
08
0@
1-
#1085000
1!
1@
0-
#1090000
1"
0!
18
0@
1-
#1095000
1!
1@
0-
#1100000
1#
0"
0!
19
08
0@
1-
#1105000
1!
1@
0-
#1110000
1"
0!
18
0@
1-
#1115000
1!
1@
0-
#1120000
1&
0%
0$
0#
0"
0!
1C
0<
0:
09
08
0@
1-
1;
#1125000
1!
1@
0-
#1130000
1"
0!
18
0@
1-
#1135000
1!
1@
0-
#1140000
1#
0"
0!
19
08
0@
1-
0;
#1145000
1!
1@
0-
#1150000
1"
0!
18
0@
1-
#1155000
1!
1@
0-
#1160000
1$
0#
0"
0!
1:
09
08
0@
1-
#1165000
1!
1@
0-
#1170000
1"
0!
18
0@
1-
#1175000
1!
1@
0-
#1180000
1#
0"
0!
19
08
0@
1-
#1185000
1!
1@
0-
#1190000
1"
0!
18
0@
1-
#1195000
1!
1@
0-
#1200000
1%
0$
0#
0"
0!
1<
0:
09
08
0@
1-
1;
#1205000
1!
1@
0-
#1210000
1"
0!
18
0@
1-
#1215000
1!
1@
0-
#1220000
1#
0"
0!
19
08
0@
1-
0;
#1225000
1!
1@
0-
#1230000
1"
0!
18
0@
1-
#1235000
1!
1@
0-
#1240000
1$
0#
0"
0!
1:
09
08
0@
1-
#1245000
1!
1@
0-
#1250000
1"
0!
18
0@
1-
#1255000
1!
1@
0-
#1260000
1#
0"
0!
19
08
0@
1-
#1265000
1!
1@
0-
#1270000
1"
0!
18
0@
1-
#1275000
1!
1@
0-
