EEA-21/labs/lab5/q53/simulation/qsim/q53.msim.vcd
$comment
	File created using the following command:
		vcd file q53.msim.vcd -direction
$end
$date
	Sun Jul 05 14:00:48 2020
$end
$version
	ModelSim Version 10.1d
$end
$timescale
	1ps
$end
$scope module q53final_vlg_vec_tst $end
$var reg 1 ! A1 $end
$var reg 1 " A2 $end
$var reg 1 # A3 $end
$var reg 1 $ A4 $end
$var reg 1 % A5 $end
$var reg 1 & A6 $end
$var reg 1 ' A7 $end
$var reg 1 ( A8 $end
$var reg 1 ) B1 $end
$var reg 1 * B2 $end
$var reg 1 + B3 $end
$var reg 1 , B4 $end
$var reg 1 - B5 $end
$var reg 1 . B6 $end
$var reg 1 / B7 $end
$var reg 1 0 B8 $end
$var reg 1 1 Cin $end
$var reg 1 2 M $end
$var reg 1 3 S0 $end
$var reg 1 4 S1 $end
$var wire 1 5 Cout $end
$var wire 1 6 F1 $end
$var wire 1 7 F2 $end
$var wire 1 8 F3 $end
$var wire 1 9 F4 $end
$var wire 1 : F5 $end
$var wire 1 ; F6 $end
$var wire 1 < F7 $end
$var wire 1 = F8 $end
$var wire 1 > sampler $end
$scope module i1 $end
$var wire 1 ? gnd $end
$var wire 1 @ vcc $end
$var wire 1 A unknown $end
$var tri1 1 B devclrn $end
$var tri1 1 C devpor $end
$var tri1 1 D devoe $end
$var wire 1 E inst8|inst5~combout $end
$var wire 1 F inst6|inst60|5~0_combout $end
$var wire 1 G inst3|inst60|5~0_combout $end
$var wire 1 H inst2|inst60|5~0_combout $end
$var wire 1 I A2~input_o $end
$var wire 1 J F8~output_o $end
$var wire 1 K F1~output_o $end
$var wire 1 L F2~output_o $end
$var wire 1 M F3~output_o $end
$var wire 1 N F4~output_o $end
$var wire 1 O F5~output_o $end
$var wire 1 P F6~output_o $end
$var wire 1 Q F7~output_o $end
$var wire 1 R Cout~output_o $end
$var wire 1 S A8~input_o $end
$var wire 1 T B8~input_o $end
$var wire 1 U S1~input_o $end
$var wire 1 V inst|inst|6~0_combout $end
$var wire 1 W M~input_o $end
$var wire 1 X A5~input_o $end
$var wire 1 Y S0~input_o $end
$var wire 1 Z B5~input_o $end
$var wire 1 [ inst4|inst60|5~0_combout $end
$var wire 1 \ inst4|inst60|5~1_combout $end
$var wire 1 ] A6~input_o $end
$var wire 1 ^ inst3|inst60|5~1_combout $end
$var wire 1 _ A7~input_o $end
$var wire 1 ` inst2|inst60|5~1_combout $end
$var wire 1 a inst|inst|6~1_combout $end
$var wire 1 b B1~input_o $end
$var wire 1 c inst8|inst|6~1_combout $end
$var wire 1 d Cin~input_o $end
$var wire 1 e inst8|inst|6~0_combout $end
$var wire 1 f inst8|inst|6~2_combout $end
$var wire 1 g A1~input_o $end
$var wire 1 h inst8|inst15~0_combout $end
$var wire 1 i inst8|inst60|5~0_combout $end
$var wire 1 j B2~input_o $end
$var wire 1 k inst7|inst|6~0_combout $end
$var wire 1 l inst7|inst|6~1_combout $end
$var wire 1 m inst7|inst60|5~0_combout $end
$var wire 1 n inst7|inst60|5~1_combout $end
$var wire 1 o B3~input_o $end
$var wire 1 p inst6|inst|6~0_combout $end
$var wire 1 q inst6|inst|6~1_combout $end
$var wire 1 r A3~input_o $end
$var wire 1 s inst6|inst60|5~1_combout $end
$var wire 1 t A4~input_o $end
$var wire 1 u inst5|inst|6~0_combout $end
$var wire 1 v inst5|inst|6~1_combout $end
$var wire 1 w B4~input_o $end
$var wire 1 x inst5|inst60|5~0_combout $end
$var wire 1 y inst5|inst60|5~1_combout $end
$var wire 1 z inst4|inst|6~0_combout $end
$var wire 1 { inst4|inst|6~1_combout $end
$var wire 1 | B6~input_o $end
$var wire 1 } inst3|inst|6~0_combout $end
$var wire 1 ~ inst3|inst|6~1_combout $end
$var wire 1 !! B7~input_o $end
$var wire 1 "! inst2|inst|6~0_combout $end
$var wire 1 #! inst2|inst|6~1_combout $end
$var wire 1 $! inst|inst60|5~0_combout $end
$var wire 1 %! inst|inst60|5~1_combout $end
$upscope $end
$upscope $end
$enddefinitions $end
#0
$dumpvars
x!
x"
x#
x$
x%
x&
x'
x(
x)
x*
x+
x,
x-
x.
x/
x0
x1
x2
x3
x4
x5
x6
x7
x8
x9
x:
x;
x<
x=
x>
0?
1@
xA
1B
1C
1D
xE
xF
xG
xH
xI
xJ
xK
xL
xM
xN
xO
xP
xQ
xR
xS
xT
xU
xV
xW
xX
xY
xZ
x[
x\
x]
x^
x_
x`
xa
xb
xc
xd
xe
xf
xg
xh
xi
xj
xk
xl
xm
xn
xo
xp
xq
xr
xs
xt
xu
xv
xw
xx
xy
xz
x{
x|
x}
x~
x!!
x"!
x#!
x$!
x%!
$end
#500000
02
14
03
01
00
0/
1.
0-
0,
1+
1*
1)
0(
1'
1&
0%
0$
1#
0"
0!
0W
1U
0Y
0d
0T
0!!
1|
0Z
0w
1o
1j
1b
0S
1_
1]
0X
0t
1r
0I
0g
0>
0$!
1"!
0}
0z
0x
0u
0p
1m
1k
1c
0[
0V
0H
1G
1F
0h
0E
0y
0\
1^
1s
0i
1e
0%!
1#!
0~
0{
0v
0q
1l
1f
0a
1`
0n
0R
1Q
0P
0O
0N
0M
1L
1K
0J
05
1<
0;
0:
09
08
17
16
0=
#1000000
1/
0.
1-
1,
0+
0)
1(
0&
1%
0#
1"
1!!
0|
1Z
1w
0o
0b
1S
0]
1X
0r
1I
1>
0"!
1H
0G
1[
1x
1u
0F
0e
0c
1V
0^
0s
1n
0k
1%!
1\
1R
15
0#!
1v
0f
1a
0l
0Q
1N
0K
1J
0L
0<
19
06
1=
07
#1500000
04
13
11
x0
x*
0'
1$
x/
x.
x-
x,
x+
x)
0(
1&
1#
0"
0U
1Y
1d
xT
xj
0_
1t
x!!
x|
xZ
xw
xo
xb
0S
1]
1r
0I
0>
1"!
0x
0u
0m
1k
1e
1c
0[
0H
1h
0\
1E
0n
0`
1i
0e
1#!
0v
1l
1f
1n
1Q
0N
1L
1K
1<
09
17
16
0%!
0R
05
#2000000
0%
0$
1(
0&
0#
1"
0X
0t
1S
0]
0r
1I
1>
1z
1u
0V
1}
1s
1p
0n
0k
1y
0s
1{
1v
0a
1~
1q
0l
1\
0y
1O
1N
0J
1P
1M
0L
1:
19
0=
1;
18
07
1^
0\
1`
0^
0`
#2500000
12
1!
1'
1#
1W
1g
1_
1r
0>
xh
0c
0E
0"!
0p
1l
0f
0i
1e
1L
0K
17
06
0#!
0q
0Q
0M
0<
08
0l
1f
0L
1K
07
16
#3000000
0!
0'
0#
0g
0_
0r
1>
1h
1c
1E
1"!
1p
1i
0e
1#!
1q
1Q
1M
1<
18
1l
0f
1L
0K
17
06
#3500000
03
1%
0"
1!
0Y
1X
0I
1g
0>
0"!
0}
0u
0p
1V
0#!
0~
0v
0q
1a
0Q
0P
0N
0M
1J
0<
0;
09
08
1=
#4000000
1$
1&
1'
1#
1"
1t
1]
1_
1r
1I
1>
1u
1}
1"!
1p
1n
1k
1s
1v
1~
1#!
0l
1y
1N
1P
1Q
0L
19
1;
1<
07
0v
1\
0N
09
0{
1^
0O
0:
0~
1`
0P
0;
0#!
0Q
0<
1%!
0a
1R
0J
15
0=
#4500000
14
01
00
0*
0/
1.
1-
1,
1+
0)
0(
0#
0"
1U
0d
0T
0j
0!!
1|
1Z
1w
1o
0b
0S
0r
0I
0>
0}
0z
1x
0u
0k
1e
1[
0V
1G
1F
0h
0s
0n
0%!
0i
0R
05
1~
1{
1l
1f
1a
1q
1P
1O
1L
1K
1J
1M
1;
1:
17
16
1=
18
0l
0L
07
#5000000
0%
0!
0'
10
1*
0.
0-
0,
0+
1(
1"
0X
0g
0_
1T
1j
0|
0Z
0w
0o
1S
1I
1>
0c
0E
0"!
0`
1$!
1m
1}
0G
0[
0x
1u
0p
0F
1%!
0e
1n
0\
0y
1R
15
1#!
0a
0~
1v
0q
0^
1Q
0J
0P
1N
0M
1<
0=
0;
19
08
0f
1q
1~
0{
0K
1M
1P
0O
06
18
1;
0:
0#!
0Q
0<
#5500000
0$
0&
1/
1!
1.
1-
1,
1+
0(
0t
0]
1!!
1g
1|
1Z
1w
1o
0S
0>
1"!
1H
1c
1E
1G
1z
1[
1x
1p
1F
1V
0%!
1e
1s
0R
05
1#!
1{
0q
1a
1y
1Q
1O
0M
1J
1<
1:
08
1=
1f
0v
1\
1K
0N
16
09
0{
1^
0O
0:
0~
1`
0P
0;
0#!
0Q
0<
1%!
0a
1R
0J
15
0=
#6000000
13
11
00
0*
0"
0-
0,
1Y
1d
0T
0j
0I
0Z
0w
1>
0"!
0}
0p
1k
0c
0E
0e
0$!
0m
0[
0x
1e
0n
1#!
1~
1q
1l
0f
1Q
1P
1M
1L
0K
1<
1;
18
17
06
1f
0q
1K
0M
16
08
#6500000
1)
1#
1'
1&
0/
0!
0.
0+
1b
1r
1_
1]
0!!
0g
0|
0o
0>
1h
0e
0s
0H
1E
0G
0F
1i
0y
0`
1e
0^
0f
1v
1n
0\
0K
1N
06
19
0l
1{
0%!
1a
1f
0#!
0L
1O
0R
1J
1K
0Q
07
1:
05
1=
16
0<
1q
0~
1M
0P
18
0;
#7000000
1%
1$
1(
10
1-
1,
0)
0'
1.
1+
1X
1t
1S
1T
1Z
1w
0b
0_
1|
1o
1>
1$!
1[
1x
0e
1c
1"!
1}
1G
1p
1F
1s
0f
1#!
1~
0q
1y
0K
1Q
1P
0M
06
1<
1;
08
0v
1\
0N
09
0{
1^
0O
0:
0~
1`
0P
0;
0#!
0Q
0<
1%!
0a
1R
0J
15
0=
#7500000
0#
0$
00
0-
0,
1'
0.
0+
0r
0t
0T
0Z
0w
1_
0|
0o
0>
0$!
0V
0z
0[
0x
0"!
0`
0}
0G
0F
0\
0^
0%!
1{
1#!
1~
0R
1O
1Q
1P
05
1:
1<
1;
0~
0#!
0P
0Q
0;
0<
#8000000
x2
x4
x3
01
x*
x"
x&
x/
x!
x%
x(
x)
x#
x$
x0
x-
x,
x'
x.
x+
xW
xU
xY
0d
xj
xI
x]
x!!
xg
xX
xS
xb
xr
xt
xT
xZ
xw
x_
x|
xo
1>
x$!
x"!
x}
xz
xx
xu
xp
xm
xk
xi
xe
xc
x[
xV
xH
xG
xF
xy
xs
xn
xh
x\
xE
x{
xv
xq
xl
xf
x`
x^
xO
xN
xM
xL
xK
x:
x9
x8
x7
x6
x%!
x#!
x~
xa
xR
xQ
xP
xJ
x5
x<
x;
x=
