EEA-21/labs/lab7/q42/simulation/qsim/q42.msim.vcd
$comment
	File created using the following command:
		vcd file q42.msim.vcd -direction
$end
$date
	Mon Aug 03 17:43:11 2020
$end
$version
	ModelSim Version 10.1d
$end
$timescale
	1ps
$end
$scope module q42_vlg_vec_tst $end
$var reg 1 ! CLK $end
$var reg 1 " TEMP $end
$var wire 1 # Z $end
$var wire 1 $ sampler $end
$scope module i1 $end
$var wire 1 % gnd $end
$var wire 1 & vcc $end
$var wire 1 ' unknown $end
$var tri1 1 ( devclrn $end
$var tri1 1 ) devpor $end
$var tri1 1 * devoe $end
$var wire 1 + Z~output_o $end
$var wire 1 , CLK~input_o $end
$var wire 1 - CLK~inputclkctrl_outclk $end
$var wire 1 . TEMP~input_o $end
$var wire 1 / inst3|inst2~combout $end
$var wire 1 0 inst|inst7~combout $end
$var wire 1 1 inst|inst2|3~q $end
$var wire 1 2 inst|inst6~0_combout $end
$var wire 1 3 inst3|inst13~0_combout $end
$var wire 1 4 inst3|inst13~combout $end
$var wire 1 5 inst3|inst1|3~q $end
$var wire 1 6 inst|inst8~combout $end
$var wire 1 7 inst|inst3|3~q $end
$var wire 1 8 inst|inst4~2_combout $end
$var wire 1 9 inst|inst4~combout $end
$var wire 1 : inst|inst|3~q $end
$var wire 1 ; inst3|inst6~0_combout $end
$var wire 1 < inst3|inst6~1_combout $end
$var wire 1 = inst3|inst|3~q $end
$upscope $end
$upscope $end
$enddefinitions $end
#0
$dumpvars
0!
1"
0#
x$
0%
1&
x'
1(
1)
1*
0+
0,
0-
1.
1/
00
01
02
03
14
05
06
07
18
19
0:
0;
0<
0=
$end
#5000
1!
1,
1-
0$
1:
15
09
13
0/
10
#10000
0!
0,
0-
1$
#15000
1!
1,
1-
0$
0:
11
19
1;
#20000
0!
0,
0-
1$
#25000
1!
1,
1-
0$
1:
1<
12
00
03
1/
#30000
0!
0,
0-
1$
#35000
1!
1,
1-
0$
01
1=
0;
09
02
08
16
13
0/
1+
1#
06
10
#40000
0!
0,
0-
1$
#45000
1!
1,
1-
0$
0:
11
19
1;
#50000
0!
0,
0-
1$
#55000
1!
1,
1-
0$
1:
09
12
00
16
#60000
0!
0,
0-
1$
#65000
1!
1,
1-
0$
0:
17
01
19
02
18
06
03
1/
0;
16
13
0/
#70000
0!
0,
0-
1$
#75000
1!
1,
1-
0$
1:
09
10
#80000
0!
0,
0-
1$
#85000
1!
1,
1-
0$
0:
11
19
1;
#90000
0!
0,
0-
1$
#95000
1!
1,
1-
0$
1:
0<
12
00
06
03
1/
#100000
0!
0,
0-
1$
#105000
1!
1,
1-
0$
07
01
0=
1<
0;
09
02
0+
0#
0<
13
0/
10
#110000
0!
0,
0-
1$
#115000
1!
1,
1-
0$
0:
11
19
1;
#120000
0!
0,
0-
1$
#125000
1!
1,
1-
0$
1:
1<
12
00
03
1/
#130000
0!
0,
0-
1$
#135000
1!
1,
1-
0$
01
1=
0;
09
02
08
16
13
0/
1+
1#
06
10
#140000
0"
0!
0.
0,
0-
1$
#145000
1!
1,
1-
0$
0:
11
19
1;
#150000
0!
0,
0-
1$
#155000
1!
1,
1-
0$
1:
09
12
00
16
#160000
0!
0,
0-
1$
#165000
1!
1,
1-
0$
0:
17
01
19
02
18
06
03
1/
0;
16
13
0/
04
14
#170000
0!
0,
0-
1$
#175000
1!
1,
1-
0$
1:
09
10
#180000
0!
0,
0-
1$
#185000
1!
1,
1-
0$
0:
11
19
1;
#190000
0!
0,
0-
1$
#195000
1!
1,
1-
0$
1:
0<
12
00
06
03
1/
04
#200000
0!
0,
0-
1$
#205000
1!
1,
1-
0$
07
05
01
0=
1<
0;
02
0+
0#
0<
#210000
0!
0,
0-
1$
#215000
1!
1,
1-
0$
#220000
1"
0!
1.
0,
0-
1$
14
#225000
1!
1,
1-
0$
15
09
13
0/
10
#230000
0"
0!
0.
0,
0-
1$
#235000
1!
1,
1-
0$
0:
11
19
#240000
0!
0,
0-
1$
#245000
1!
1,
1-
0$
1:
12
00
03
1/
04
#250000
1"
0!
1.
0,
0-
1$
1;
14
1<
#255000
1!
1,
1-
0$
01
1=
0;
09
02
08
16
13
0/
1+
1#
06
10
#260000
0"
0!
0.
0,
0-
1$
#265000
1!
1,
1-
0$
0:
11
19
1;
#270000
0!
0,
0-
1$
#275000
1!
1,
1-
0$
1:
09
12
00
16
#280000
0!
0,
0-
1$
#285000
1!
1,
1-
0$
0:
17
01
19
02
18
06
03
1/
0;
16
13
0/
04
14
#290000
0!
0,
0-
1$
#295000
1!
1,
1-
0$
1:
09
10
