EEA-21/labs/lab2/q5/simulation/qsim/q5.msim.vcd
$comment
	File created using the following command:
		vcd file q5.msim.vcd -direction
$end
$date
	Wed Jun 03 18:01:09 2020
$end
$version
	ModelSim Version 10.1d
$end
$timescale
	1ps
$end
$scope module q5_vlg_vec_tst $end
$var reg 1 ! A1 $end
$var reg 1 " A2 $end
$var reg 1 # Y01 $end
$var reg 1 $ Y02 $end
$var reg 1 % Y11 $end
$var reg 1 & Y12 $end
$var wire 1 ' A $end
$var wire 1 ( Y0 $end
$var wire 1 ) Y1 $end
$var wire 1 * Y2 $end
$var wire 1 + sampler $end
$scope module i1 $end
$var wire 1 , gnd $end
$var wire 1 - vcc $end
$var wire 1 . unknown $end
$var tri1 1 / devclrn $end
$var tri1 1 0 devpor $end
$var tri1 1 1 devoe $end
$var wire 1 2 A~output_o $end
$var wire 1 3 Y2~output_o $end
$var wire 1 4 Y1~output_o $end
$var wire 1 5 Y0~output_o $end
$var wire 1 6 A1~input_o $end
$var wire 1 7 A2~input_o $end
$var wire 1 8 inst~combout $end
$var wire 1 9 Y11~input_o $end
$var wire 1 : Y12~input_o $end
$var wire 1 ; inst2~combout $end
$var wire 1 < Y01~input_o $end
$var wire 1 = Y02~input_o $end
$var wire 1 > inst5~combout $end
$upscope $end
$upscope $end
$enddefinitions $end
#0
$dumpvars
0!
0"
0#
0$
0%
0&
0'
0(
0)
0*
x+
0,
1-
x.
1/
10
11
02
03
04
05
06
07
08
09
0:
0;
0<
0=
0>
$end
#5000
1&
1:
0+
1;
14
1)
#10000
1$
0&
1=
0:
1+
1>
0;
15
04
1(
0)
#15000
1&
1:
0+
1;
14
1)
#20000
1"
0$
0&
0=
0:
1+
17
13
1*
0>
0;
18
05
04
12
0(
0)
1'
#25000
1&
1:
0+
1;
14
1)
#30000
1$
0&
1=
0:
1+
1>
0;
15
04
1(
0)
#35000
1&
1:
0+
1;
14
1)
#40000
1%
0"
0$
0&
19
0=
0:
1+
07
03
0*
0>
08
05
02
0(
0'
#45000
1&
1:
0+
#50000
1$
0&
1=
0:
1+
1>
15
1(
#55000
1&
1:
0+
#60000
1"
0$
0&
0=
0:
1+
17
13
1*
0>
0;
18
05
04
12
0(
0)
1'
#65000
1&
1:
0+
1;
14
1)
#70000
1$
0&
1=
0:
1+
1>
0;
15
04
1(
0)
#75000
1&
1:
0+
1;
14
1)
#80000
1#
0%
0"
0$
0&
1<
09
0=
0:
1+
07
03
0*
0;
08
04
02
0)
0'
#85000
1&
1:
0+
1;
14
1)
#90000
1$
0&
1=
0:
1+
0;
04
0)
#95000
1&
1:
0+
1;
14
1)
#100000
1"
0$
0&
0=
0:
1+
17
13
1*
0>
0;
18
05
04
12
0(
0)
1'
#105000
1&
1:
0+
1;
14
1)
#110000
1$
0&
1=
0:
1+
1>
0;
15
04
1(
0)
#115000
1&
1:
0+
1;
14
1)
#120000
1%
0"
0$
0&
19
0=
0:
1+
07
03
0*
08
02
0'
#125000
1&
1:
0+
#130000
1$
0&
1=
0:
1+
#135000
1&
1:
0+
#140000
1"
0$
0&
0=
0:
1+
17
13
1*
0>
0;
18
05
04
12
0(
0)
1'
#145000
1&
1:
0+
1;
14
1)
#150000
1$
0&
1=
0:
1+
1>
0;
15
04
1(
0)
#155000
1&
1:
0+
1;
14
1)
#160000
1!
0#
0%
0"
0$
0&
16
0<
09
0=
0:
1+
07
03
0*
0>
0;
05
04
0(
0)
#165000
1&
1:
0+
1;
14
1)
#170000
1$
0&
1=
0:
1+
1>
0;
15
04
1(
0)
#175000
1&
1:
0+
1;
14
1)
#180000
1"
0$
0&
0=
0:
1+
17
13
1*
0>
0;
05
04
0(
0)
#185000
1&
1:
0+
1;
14
1)
#190000
1$
0&
1=
0:
1+
1>
0;
15
04
1(
0)
#195000
1&
1:
0+
1;
14
1)
#200000
1%
0"
0$
0&
19
0=
0:
1+
07
03
0*
0>
05
0(
#205000
1&
1:
0+
#210000
1$
0&
1=
0:
1+
1>
15
1(
#215000
1&
1:
0+
#220000
1"
0$
0&
0=
0:
1+
17
13
1*
0>
0;
05
04
0(
0)
#225000
1&
1:
0+
1;
14
1)
#230000
1$
0&
1=
0:
1+
1>
0;
15
04
1(
0)
#235000
1&
1:
0+
1;
14
1)
#240000
1#
0%
0"
0$
0&
1<
09
0=
0:
1+
07
03
0*
0;
04
0)
#245000
1&
1:
0+
1;
14
1)
#250000
1$
0&
1=
0:
1+
0;
04
0)
#255000
1&
1:
0+
1;
14
1)
#260000
1"
0$
0&
0=
0:
1+
17
13
1*
0>
0;
05
04
0(
0)
#265000
1&
1:
0+
1;
14
1)
#270000
1$
0&
1=
0:
1+
1>
0;
15
04
1(
0)
#275000
1&
1:
0+
1;
14
1)
#280000
1%
0"
0$
0&
19
0=
0:
1+
07
03
0*
#285000
1&
1:
0+
#290000
1$
0&
1=
0:
1+
#295000
1&
1:
0+
#300000
1"
0$
0&
0=
0:
1+
17
13
1*
0>
0;
05
04
0(
0)
#305000
1&
1:
0+
1;
14
1)
#310000
1$
0&
1=
0:
1+
1>
0;
15
04
1(
0)
#315000
1&
1:
0+
1;
14
1)
