EEA-21/labs/lab3/q61/simulation/qsim/q61.msim.vcd
$comment
	File created using the following command:
		vcd file q61.msim.vcd -direction
$end
$date
	Wed Jun 10 22:59:36 2020
$end
$version
	ModelSim Version 10.1d
$end
$timescale
	1ps
$end
$scope module questao611_vlg_vec_tst $end
$var reg 1 ! A0 $end
$var reg 1 " A1 $end
$var reg 1 # A2 $end
$var reg 1 $ A3 $end
$var reg 1 % B0 $end
$var reg 1 & B1 $end
$var reg 1 ' B2 $end
$var reg 1 ( B3 $end
$var reg 1 ) E $end
$var reg 1 * X $end
$var reg 1 + X1 $end
$var wire 1 , S0 $end
$var wire 1 - S1 $end
$var wire 1 . S2 $end
$var wire 1 / S3 $end
$var wire 1 0 sampler $end
$scope module i1 $end
$var wire 1 1 gnd $end
$var wire 1 2 vcc $end
$var wire 1 3 unknown $end
$var tri1 1 4 devclrn $end
$var tri1 1 5 devpor $end
$var tri1 1 6 devoe $end
$var wire 1 7 inst|sub|105~0_combout $end
$var wire 1 8 B1~input_o $end
$var wire 1 9 A3~input_o $end
$var wire 1 : S0~output_o $end
$var wire 1 ; S1~output_o $end
$var wire 1 < S2~output_o $end
$var wire 1 = S3~output_o $end
$var wire 1 > A0~input_o $end
$var wire 1 ? B0~input_o $end
$var wire 1 @ X~input_o $end
$var wire 1 A X1~input_o $end
$var wire 1 B inst2|sub|76~0_combout $end
$var wire 1 C inst2|sub|104~0_combout $end
$var wire 1 D B2~input_o $end
$var wire 1 E E~input_o $end
$var wire 1 F A2~input_o $end
$var wire 1 G inst|sub|80~combout $end
$var wire 1 H inst|sub|106~0_combout $end
$var wire 1 I B3~input_o $end
$var wire 1 J inst6~0_combout $end
$var wire 1 K inst|sub|107~0_combout $end
$var wire 1 L inst20~combout $end
$var wire 1 M A1~input_o $end
$var wire 1 N inst|sub|104~0_combout $end
$var wire 1 O inst|sub|78~combout $end
$var wire 1 P inst2|sub|78~combout $end
$var wire 1 Q inst2|sub|105~0_combout $end
$var wire 1 R inst6~1_combout $end
$var wire 1 S inst2|sub|80~combout $end
$var wire 1 T inst2|sub|82~0_combout $end
$var wire 1 U inst2|sub|82~combout $end
$upscope $end
$upscope $end
$enddefinitions $end
#0
$dumpvars
0!
0"
1#
0$
1%
0&
1'
0(
0)
0*
0+
1,
0-
0.
1/
x0
01
12
x3
14
15
16
07
08
09
1:
0;
0<
1=
0>
1?
0@
0A
1B
0C
1D
0E
1F
0G
1H
0I
0J
0K
0L
0M
0N
0O
0P
0Q
0R
0S
1T
1U
$end
#1000000
1!
1"
0%
1>
1M
0?
00
1O
1J
1P
1R
1L
1;
1-
1Q
1S
0P
1<
0;
1.
0-
0U
0S
0=
0<
0/
0.
#2000000
0'
1(
1%
0D
1I
1?
10
0H
1G
0T
1K
0J
1N
0B
1T
0K
1J
0O
17
0:
0,
1U
1S
0Q
1H
0G
1=
1<
1/
1.
0U
1P
0T
1K
0J
0=
1;
0/
1-
1U
1=
1/
0U
0=
0/
#3000000
0#
1$
0%
0F
19
0?
00
0H
1G
1T
0R
0L
0N
1B
0T
1J
1O
07
1:
1,
1U
0P
0G
1=
0;
1/
0-
0U
1P
0=
1;
0/
1-
0S
0<
0.
#4000000
0!
0"
1'
0(
0>
0M
1D
0I
10
0O
1G
1T
0K
0J
0B
0:
0,
0P
1U
1S
0;
1=
1<
0-
1/
1.
#5000000
1&
1)
0$
1%
1!
18
1E
09
1?
1>
00
1N
0G
1O
0S
0<
0.
1P
1;
1-
#6000000
1$
19
10
0T
1L
1K
1Q
0L
0U
0P
0Q
0=
0;
0/
0-
1S
1P
1<
1;
1.
1-
0S
0<
0.
#7000000
0'
1(
0&
0!
0D
1I
08
0>
00
1G
0K
1J
0O
17
0N
1B
1L
1H
0G
1O
07
1:
1,
1S
0P
1Q
1K
0J
0H
1G
1<
0;
1.
0-
0S
0L
0K
1J
0<
0.
1U
0Q
1L
1=
1/
1P
1Q
1;
1-
0U
1S
0P
0=
1<
0;
0/
1.
0-
1U
0S
1=
0<
1/
0.
