EEA-21/labs/lab3/q52/simulation/qsim/q52.msim.vcd
$comment
	File created using the following command:
		vcd file q52.msim.vcd -direction
$end
$date
	Tue Jun 09 21:34:30 2020
$end
$version
	ModelSim Version 10.1d
$end
$timescale
	1ps
$end
$scope module q52_vlg_vec_tst $end
$var reg 1 ! Ai $end
$var reg 1 " Bi $end
$var reg 1 # Y1i $end
$var reg 1 $ Y3i $end
$var wire 1 % Y1imenos1 $end
$var wire 1 & Y3imenos1 $end
$var wire 1 ' sampler $end
$scope module i1 $end
$var wire 1 ( gnd $end
$var wire 1 ) vcc $end
$var wire 1 * unknown $end
$var tri1 1 + devclrn $end
$var tri1 1 , devpor $end
$var tri1 1 - devoe $end
$var wire 1 . Y1imenos1~output_o $end
$var wire 1 / Y3imenos1~output_o $end
$var wire 1 0 Y1i~input_o $end
$var wire 1 1 Ai~input_o $end
$var wire 1 2 Bi~input_o $end
$var wire 1 3 Y3i~input_o $end
$var wire 1 4 inst6~combout $end
$var wire 1 5 inst7~combout $end
$upscope $end
$upscope $end
$enddefinitions $end
#0
$dumpvars
0!
0"
0#
0$
0%
0&
x'
0(
1)
x*
1+
1,
1-
0.
0/
00
01
02
03
04
05
$end
#5000
1"
12
0'
15
1/
1&
#10000
1!
0"
11
02
1'
05
14
0/
1.
0&
1%
#15000
1"
12
0'
04
0.
0%
#20000
1$
0!
0"
13
01
02
1'
15
1/
1&
#25000
1"
12
0'
#30000
1!
0"
11
02
1'
#35000
1"
12
0'
#40000
1#
0$
0!
0"
10
03
01
02
1'
05
14
0/
1.
0&
1%
#45000
1"
12
0'
#50000
1!
0"
11
02
1'
#55000
1"
12
0'
#60000
1$
0!
0"
13
01
02
1'
15
1/
1&
#65000
1"
12
0'
#70000
1!
0"
11
02
1'
#75000
1"
12
0'
