EEA-21/labs/lab2/q4/simulation/qsim/q4.msim.vcd
$comment
	File created using the following command:
		vcd file q4.msim.vcd -direction
$end
$date
	Wed Jun 03 16:48:09 2020
$end
$version
	ModelSim Version 10.1d
$end
$timescale
	1ps
$end
$scope module q4_vlg_vec_tst $end
$var reg 1 ! X0 $end
$var reg 1 " X1 $end
$var reg 1 # X2 $end
$var reg 1 $ X3 $end
$var wire 1 % A $end
$var wire 1 & Y0 $end
$var wire 1 ' Y1 $end
$var wire 1 ( sampler $end
$scope module i1 $end
$var wire 1 ) gnd $end
$var wire 1 * vcc $end
$var wire 1 + unknown $end
$var tri1 1 , devclrn $end
$var tri1 1 - devpor $end
$var tri1 1 . devoe $end
$var wire 1 / A~output_o $end
$var wire 1 0 Y0~output_o $end
$var wire 1 1 Y1~output_o $end
$var wire 1 2 X0~input_o $end
$var wire 1 3 X1~input_o $end
$var wire 1 4 X3~input_o $end
$var wire 1 5 X2~input_o $end
$var wire 1 6 inst~0_combout $end
$var wire 1 7 inst3~0_combout $end
$var wire 1 8 inst~1_combout $end
$upscope $end
$upscope $end
$enddefinitions $end
#0
$dumpvars
0!
0"
0#
0$
0%
0&
0'
x(
0)
1*
x+
1,
1-
1.
0/
00
01
02
03
04
05
06
17
18
$end
#5000000
1!
12
0(
16
1/
1%
#10000000
1"
0!
13
02
1(
07
10
1&
#15000000
1!
12
0(
#20000000
1#
0"
0!
15
03
02
1(
08
17
11
00
1'
0&
#25000000
1!
12
0(
#30000000
1"
0!
13
02
1(
#35000000
1!
12
0(
#40000000
1$
0#
0"
0!
14
05
03
02
1(
07
10
1&
#45000000
1!
12
0(
#50000000
1"
0!
13
02
1(
#55000000
1!
12
0(
#60000000
1#
0"
0!
15
03
02
1(
#65000000
1!
12
0(
#70000000
1"
0!
13
02
1(
#75000000
1!
12
0(
