EEA-21/labs/lab4/q61/simulation/qsim/q61.msim.vcd
$comment
	File created using the following command:
		vcd file q61.msim.vcd -direction
$end
$date
	Wed Jun 24 10:11:26 2020
$end
$version
	ModelSim Version 10.1d
$end
$timescale
	1ps
$end
$scope module q61_vlg_vec_tst $end
$var reg 1 ! A $end
$var reg 1 " B $end
$var reg 1 # C0 $end
$var reg 1 $ M $end
$var reg 1 % S0 $end
$var reg 1 & S1 $end
$var wire 1 ' C $end
$var wire 1 ( F $end
$var wire 1 ) sampler $end
$scope module i1 $end
$var wire 1 * gnd $end
$var wire 1 + vcc $end
$var wire 1 , unknown $end
$var tri1 1 - devclrn $end
$var tri1 1 . devpor $end
$var tri1 1 / devoe $end
$var wire 1 0 inst13|sub|78~1_combout $end
$var wire 1 1 F~output_o $end
$var wire 1 2 C~output_o $end
$var wire 1 3 M~input_o $end
$var wire 1 4 A~input_o $end
$var wire 1 5 S0~input_o $end
$var wire 1 6 S1~input_o $end
$var wire 1 7 C0~input_o $end
$var wire 1 8 inst13|sub|78~0_combout $end
$var wire 1 9 inst13|sub|78~3_combout $end
$var wire 1 : B~input_o $end
$var wire 1 ; inst13|sub|78~2_combout $end
$var wire 1 < inst13|sub|78~4_combout $end
$var wire 1 = inst|sub|85~1_combout $end
$var wire 1 > inst|sub|85~0_combout $end
$var wire 1 ? inst|sub|85~2_combout $end
$upscope $end
$upscope $end
$enddefinitions $end
#0
$dumpvars
0!
0"
0#
0$
0%
0&
0'
1(
x)
0*
1+
x,
1-
1.
1/
00
11
02
03
04
05
06
07
08
09
0:
0;
1<
0=
0>
0?
$end
#5000
1"
1:
0)
#10000
1!
0"
14
0:
1)
0<
01
0(
#15000
1"
1:
0)
#20000
1#
0!
0"
17
04
0:
1)
10
1<
1;
11
1(
0<
01
0(
#25000
1"
1:
0)
1>
0;
1?
1<
12
11
1'
1(
#30000
1!
0"
14
0:
1)
0>
1;
0?
0<
02
01
0'
0(
1<
11
1(
#35000
1"
1:
0)
1>
0;
0<
01
0(
#40000
1$
0#
0!
0"
13
07
04
0:
1)
00
0>
1;
1<
0;
11
1(
#45000
1"
1:
0)
#50000
1!
0"
14
0:
1)
0<
01
0(
#55000
1"
1:
0)
#60000
1#
0!
0"
17
04
0:
1)
1<
11
1(
#65000
1"
1:
0)
1>
#70000
1!
0"
14
0:
1)
0>
0<
01
0(
#75000
1"
1:
0)
1>
#80000
1%
0$
0#
0!
0"
15
03
07
04
0:
1)
0>
10
1?
1<
1;
12
11
1'
1(
0?
02
0'
0<
01
0(
#85000
1"
1:
0)
1=
0;
1<
11
1(
#90000
1!
0"
14
0:
1)
0=
1;
1?
0<
12
01
1'
0(
0?
1<
02
11
0'
1(
#95000
1"
1:
0)
1=
0;
1?
0<
12
01
1'
0(
#100000
1#
0!
0"
17
04
0:
1)
1;
0?
1<
02
11
0'
1(
0<
01
0(
#105000
1"
1:
0)
0=
0;
1<
11
1(
#110000
1!
0"
14
0:
1)
1=
1;
0<
01
0(
1?
1<
12
11
1'
1(
#115000
1"
1:
0)
0=
0;
0?
0<
02
01
0'
0(
#120000
1$
0#
0!
0"
13
07
04
0:
1)
1;
1<
11
1(
#125000
1"
1:
0)
1=
0;
#130000
1!
0"
14
0:
1)
0=
1;
0<
01
0(
1<
11
1(
#135000
1"
1:
0)
1=
0;
0<
01
0(
#140000
1#
0!
0"
17
04
0:
1)
1;
1<
11
1(
#145000
1"
1:
0)
0=
0;
#150000
1!
0"
14
0:
1)
1=
1;
0<
01
0(
1<
11
1(
#155000
1"
1:
0)
0=
0;
0<
01
0(
#160000
1&
0%
0$
0#
0!
0"
16
05
03
07
04
0:
1)
18
00
1;
1<
0;
11
1(
0<
01
0(
1<
11
1(
#165000
1"
1:
0)
1>
1;
1?
0<
12
01
1'
0(
#170000
1!
0"
14
0:
1)
0>
0;
0?
1<
02
11
0'
1(
0<
01
0(
#175000
1"
1:
0)
1>
1;
1<
11
1(
#180000
1#
0!
0"
17
04
0:
1)
08
0;
1?
0<
12
01
1'
0(
1<
11
1(
#185000
1"
1:
0)
#190000
1!
0"
14
0:
1)
0?
0<
02
01
0'
0(
#195000
1"
1:
0)
#200000
1$
0#
0!
0"
13
07
04
0:
1)
18
0>
1<
11
1(
#205000
1"
1:
0)
1>
1;
#210000
1!
0"
14
0:
1)
0>
0;
0<
01
0(
#215000
1"
1:
0)
1>
1;
1<
11
1(
#220000
1#
0!
0"
17
04
0:
1)
0;
#225000
1"
1:
0)
1;
#230000
1!
0"
14
0:
1)
0;
0<
01
0(
#235000
1"
1:
0)
1;
1<
11
1(
#240000
1%
0$
0#
0!
0"
15
03
07
04
0:
1)
0>
1=
08
0;
1?
0<
12
01
1'
0(
0?
1<
02
11
0'
1(
#245000
1"
1:
0)
#250000
1!
0"
14
0:
1)
1?
0<
12
01
1'
0(
#255000
1"
1:
0)
#260000
1#
0!
0"
17
04
0:
1)
18
10
0?
1<
19
02
11
0'
1(
#265000
1"
1:
0)
1>
1;
1?
0<
12
01
1'
0(
#270000
1!
0"
14
0:
1)
0>
0;
1<
11
1(
#275000
1"
1:
0)
1>
1;
#280000
1$
0#
0!
0"
13
07
04
0:
1)
0>
0;
0?
02
0'
0<
01
0(
#285000
1"
1:
0)
1;
1<
11
1(
#290000
1!
0"
14
0:
1)
0;
0<
01
0(
1<
11
1(
#295000
1"
1:
0)
1;
0<
01
0(
#300000
1#
0!
0"
17
04
0:
1)
0;
1<
11
1(
0<
01
0(
#305000
1"
1:
0)
1>
1;
1<
11
1(
#310000
1!
0"
14
0:
1)
0>
0;
0<
01
0(
1<
11
1(
#315000
1"
1:
0)
1>
1;
0<
01
0(
