EEA-21/labs/lab6/q51/simulation/qsim/q51.msim.vcd
$comment
	File created using the following command:
		vcd file q51.msim.vcd -direction
$end
$date
	Tue Jul 21 17:32:49 2020
$end
$version
	ModelSim Version 10.1d
$end
$timescale
	1ps
$end
$scope module q51_vlg_vec_tst $end
$var reg 1 ! CLK $end
$var reg 1 " d1 $end
$var reg 1 # d2 $end
$var reg 1 $ d3 $end
$var reg 1 % d4 $end
$var reg 1 & Ep $end
$var reg 1 ' R $end
$var wire 1 ( Q1 $end
$var wire 1 ) Q2 $end
$var wire 1 * Q3 $end
$var wire 1 + Q4 $end
$var wire 1 , sampler $end
$scope module i1 $end
$var wire 1 - gnd $end
$var wire 1 . vcc $end
$var wire 1 / unknown $end
$var tri1 1 0 devclrn $end
$var tri1 1 1 devpor $end
$var tri1 1 2 devoe $end
$var wire 1 3 d4~input_o $end
$var wire 1 4 R~input_o $end
$var wire 1 5 d2~input_o $end
$var wire 1 6 d1~input_o $end
$var wire 1 7 Q4~output_o $end
$var wire 1 8 Q3~output_o $end
$var wire 1 9 Q2~output_o $end
$var wire 1 : Q1~output_o $end
$var wire 1 ; CLK~input_o $end
$var wire 1 < CLK~inputclkctrl_outclk $end
$var wire 1 = Ep~input_o $end
$var wire 1 > inst3|5~0_combout $end
$var wire 1 ? inst9|3~q $end
$var wire 1 @ d3~input_o $end
$var wire 1 A inst5|5~0_combout $end
$var wire 1 B inst5|5~1_combout $end
$var wire 1 C inst8|3~q $end
$var wire 1 D inst4|5~0_combout $end
$var wire 1 E inst2|5~0_combout $end
$var wire 1 F inst7|3~q $end
$var wire 1 G inst1|5~0_combout $end
$var wire 1 H inst|5~0_combout $end
$var wire 1 I inst6|3~q $end
$upscope $end
$upscope $end
$enddefinitions $end
#0
$dumpvars
0!
1"
0#
0$
1%
1&
0'
0(
0)
0*
0+
x,
0-
1.
x/
10
11
12
13
04
05
16
07
08
09
0:
0;
0<
1=
1>
0?
0@
0A
0B
0C
1D
0E
0F
0G
1H
0I
$end
#20000
1!
1;
1<
0,
1I
1?
1:
17
1(
1+
#40000
0&
0!
0=
0;
0<
1,
1A
0>
1B
#60000
1!
1;
1<
0,
1C
0?
1>
18
07
1*
0+
#80000
x"
x#
x$
x%
0!
x6
x5
x@
x3
0;
0<
1,
#100000
1!
1;
1<
0,
1?
0D
0A
0>
17
1+
1E
0B
#120000
0!
0;
0<
1,
#140000
1!
1;
1<
0,
1F
0C
0?
1>
19
08
07
1)
0*
0+
#160000
0!
0;
0<
1,
#180000
1!
1;
1<
0,
1?
1A
0>
17
1+
1B
#200000
0!
0;
0<
1,
#220000
1!
1;
1<
0,
1C
0?
1>
18
07
1*
0+
#240000
0!
0;
0<
1,
#260000
1!
1;
1<
0,
1?
1G
1D
0A
0>
17
1+
0H
0E
0B
#280000
0!
0;
0<
1,
#300000
1!
1;
1<
0,
0I
0F
0C
0?
1H
0G
1>
0:
09
08
07
0(
0)
0*
0+
0H
#320000
0"
1#
1$
0%
0!
06
15
1@
03
0;
0<
1,
#340000
1!
1;
1<
0,
1?
1A
0>
17
1+
1B
#360000
1'
1&
0!
14
1=
0;
0<
1,
0A
1E
#380000
1!
1;
1<
0,
1F
1C
0?
0D
19
18
07
1)
1*
0+
#400000
x"
x#
x$
x%
0&
0!
x6
x5
x@
x3
0=
0;
0<
1,
0B
1>
#420000
1!
1;
1<
0,
0C
1?
0>
08
17
0*
1+
#440000
0!
0;
0<
1,
#460000
1!
1;
1<
0,
0?
1D
1A
1>
07
0+
0E
1B
#480000
0!
0;
0<
1,
#500000
1!
1;
1<
0,
0F
1C
1?
0>
09
18
17
0)
1*
1+
#520000
0!
0;
0<
1,
#540000
1!
1;
1<
0,
0?
0A
1>
07
0+
0B
#560000
0!
0;
0<
1,
#580000
1!
1;
1<
0,
0C
1?
0>
08
17
0*
1+
#600000
0!
0;
0<
1,
#620000
1!
1;
1<
0,
0?
1G
0D
1A
1>
07
0+
1H
1E
1B
#640000
0!
0;
0<
1,
#660000
1!
1;
1<
0,
1I
1F
1C
1?
0H
0G
0>
1:
19
18
17
1(
1)
1*
1+
1H
#680000
0!
0;
0<
1,
#700000
1!
1;
1<
0,
0?
0A
1>
07
0+
0B
#720000
0!
0;
0<
1,
#740000
1!
1;
1<
0,
0C
1?
0>
08
17
0*
1+
