EEA-21/labs/lab1/simulation/qsim/lab1.msim.vcd
$comment
	File created using the following command:
		vcd file lab1.msim.vcd -direction
$end
$date
	Tue Mar 10 20:50:44 2020
$end
$version
	ModelSim Version 10.1d
$end
$timescale
	1ps
$end
$scope module Block3_vlg_vec_tst $end
$var reg 1 ! a $end
$var reg 1 " b $end
$var reg 1 # c $end
$var reg 1 $ d $end
$var wire 1 % F $end
$var wire 1 & sampler $end
$scope module i1 $end
$var wire 1 ' gnd $end
$var wire 1 ( vcc $end
$var wire 1 ) unknown $end
$var tri1 1 * devclrn $end
$var tri1 1 + devpor $end
$var tri1 1 , devoe $end
$var wire 1 - F~output_o $end
$var wire 1 . a~input_o $end
$var wire 1 / d~input_o $end
$var wire 1 0 b~input_o $end
$var wire 1 1 c~input_o $end
$var wire 1 2 inst4~0_combout $end
$upscope $end
$upscope $end
$enddefinitions $end
#0
$dumpvars
0!
0"
0#
0$
0%
x&
0'
1(
x)
1*
1+
1,
0-
0.
0/
00
01
02
$end
#5000000
1$
1/
0&
12
1-
1%
#10000000
1#
0$
11
0/
1&
02
0-
0%
#15000000
1$
1/
0&
12
1-
1%
#20000000
1"
0#
0$
10
01
0/
1&
#25000000
1$
1/
0&
#30000000
1#
0$
11
0/
1&
#35000000
1$
1/
0&
#40000000
1!
0"
0#
0$
1.
00
01
0/
1&
#45000000
1$
1/
0&
02
0-
0%
#50000000
1#
0$
11
0/
1&
12
1-
1%
#55000000
1$
1/
0&
#60000000
1"
0#
0$
10
01
0/
1&
02
0-
0%
#65000000
1$
1/
0&
#70000000
1#
0$
11
0/
1&
#75000000
1$
1/
0&
